%YAML 1.1
%TAG !u! tag:unity3d.com,2011:
--- !u!1001 &2914134482449612122
PrefabInstance:
  m_ObjectHideFlags: 0
  serializedVersion: 2
  m_Modification:
    m_TransformParent: {fileID: 0}
    m_Modifications:
    - target: {fileID: 962418124055803997, guid: 253990fc93f73734baf3c228d1bbd808,
        type: 3}
      propertyPath: m_LocalScale.x
      value: 29.285366
      objectReference: {fileID: 0}
    - target: {fileID: 962418124055803997, guid: 253990fc93f73734baf3c228d1bbd808,
        type: 3}
      propertyPath: m_LocalScale.y
      value: 29.285366
      objectReference: {fileID: 0}
    - target: {fileID: 962418124055803997, guid: 253990fc93f73734baf3c228d1bbd808,
        type: 3}
      propertyPath: m_LocalScale.z
      value: 29.285366
      objectReference: {fileID: 0}
    - target: {fileID: 962418124055803997, guid: 253990fc93f73734baf3c228d1bbd808,
        type: 3}
      propertyPath: m_LocalRotation.x
      value: -0.7071068
      objectReference: {fileID: 0}
    - target: {fileID: 962418124055803997, guid: 253990fc93f73734baf3c228d1bbd808,
        type: 3}
      propertyPath: m_LocalRotation.y
      value: 0
      objectReference: {fileID: 0}
    - target: {fileID: 962418124055803997, guid: 253990fc93f73734baf3c228d1bbd808,
        type: 3}
      propertyPath: m_LocalRotation.z
      value: 0
      objectReference: {fileID: 0}
    - target: {fileID: 962418124055803997, guid: 253990fc93f73734baf3c228d1bbd808,
        type: 3}
      propertyPath: m_LocalRotation.w
      value: 0.7071068
      objectReference: {fileID: 0}
    - target: {fileID: 962418124055803997, guid: 253990fc93f73734baf3c228d1bbd808,
        type: 3}
      propertyPath: m_LocalEulerAnglesHint.z
      value: 0
      objectReference: {fileID: 0}
    - target: {fileID: 962418124055803997, guid: 253990fc93f73734baf3c228d1bbd808,
        type: 3}
      propertyPath: m_LocalPosition.y
      value: -0.36
      objectReference: {fileID: 0}
    - target: {fileID: 962418124055803997, guid: 253990fc93f73734baf3c228d1bbd808,
        type: 3}
      propertyPath: m_LocalPosition.x
      value: -0.00000026204
      objectReference: {fileID: 0}
    - target: {fileID: 962418124055803997, guid: 253990fc93f73734baf3c228d1bbd808,
        type: 3}
      propertyPath: m_LocalPosition.z
      value: -0.0000000063468
      objectReference: {fileID: 0}
    - target: {fileID: 1839561827640550550, guid: 253990fc93f73734baf3c228d1bbd808,
        type: 3}
      propertyPath: m_Materials.Array.size
      value: 1
      objectReference: {fileID: 0}
    - target: {fileID: 1839561827640550550, guid: 253990fc93f73734baf3c228d1bbd808,
        type: 3}
      propertyPath: m_Materials.Array.data[0]
      value: 
      objectReference: {fileID: 2100000, guid: 74daeb283fec14944b3e487b830ec84a, type: 2}
    - target: {fileID: 2215148379936919965, guid: 253990fc93f73734baf3c228d1bbd808,
        type: 3}
      propertyPath: m_textInfo.characterCount
      value: 12
      objectReference: {fileID: 0}
    - target: {fileID: 2215148379936919965, guid: 253990fc93f73734baf3c228d1bbd808,
        type: 3}
      propertyPath: m_textInfo.spaceCount
      value: 1
      objectReference: {fileID: 0}
    - target: {fileID: 2215148379936919965, guid: 253990fc93f73734baf3c228d1bbd808,
        type: 3}
      propertyPath: m_textInfo.wordCount
      value: 2
      objectReference: {fileID: 0}
    - target: {fileID: 2215148379936919965, guid: 253990fc93f73734baf3c228d1bbd808,
        type: 3}
      propertyPath: m_textInfo.lineCount
      value: 2
      objectReference: {fileID: 0}
    - target: {fileID: 2215148379936919965, guid: 253990fc93f73734baf3c228d1bbd808,
        type: 3}
      propertyPath: m_textInfo.pageCount
      value: 1
      objectReference: {fileID: 0}
    - target: {fileID: 2215148379936919967, guid: 253990fc93f73734baf3c228d1bbd808,
        type: 3}
      propertyPath: m_Mesh
      value: 
      objectReference: {fileID: 0}
    - target: {fileID: 4843754531427538026, guid: 253990fc93f73734baf3c228d1bbd808,
        type: 3}
      propertyPath: m_Mesh
      value: 
      objectReference: {fileID: 7102443121758123647, guid: 8c3869f35db149347a2a036d2481cbbc,
        type: 3}
    - target: {fileID: 8961325766154055662, guid: 253990fc93f73734baf3c228d1bbd808,
        type: 3}
      propertyPath: m_Name
      value: ExitFloor Variant
      objectReference: {fileID: 0}
    - target: {fileID: 8961325766154055663, guid: 253990fc93f73734baf3c228d1bbd808,
        type: 3}
      propertyPath: m_LocalPosition.x
      value: -28.104744
      objectReference: {fileID: 0}
    - target: {fileID: 8961325766154055663, guid: 253990fc93f73734baf3c228d1bbd808,
        type: 3}
      propertyPath: m_LocalPosition.y
      value: 0
      objectReference: {fileID: 0}
    - target: {fileID: 8961325766154055663, guid: 253990fc93f73734baf3c228d1bbd808,
        type: 3}
      propertyPath: m_LocalPosition.z
      value: 3.4103088
      objectReference: {fileID: 0}
    - target: {fileID: 8961325766154055663, guid: 253990fc93f73734baf3c228d1bbd808,
        type: 3}
      propertyPath: m_LocalRotation.x
      value: -0
      objectReference: {fileID: 0}
    - target: {fileID: 8961325766154055663, guid: 253990fc93f73734baf3c228d1bbd808,
        type: 3}
      propertyPath: m_LocalRotation.y
      value: -0.7156163
      objectReference: {fileID: 0}
    - target: {fileID: 8961325766154055663, guid: 253990fc93f73734baf3c228d1bbd808,
        type: 3}
      propertyPath: m_LocalRotation.z
      value: -0
      objectReference: {fileID: 0}
    - target: {fileID: 8961325766154055663, guid: 253990fc93f73734baf3c228d1bbd808,
        type: 3}
      propertyPath: m_LocalRotation.w
      value: -0.6984936
      objectReference: {fileID: 0}
    - target: {fileID: 8961325766154055663, guid: 253990fc93f73734baf3c228d1bbd808,
        type: 3}
      propertyPath: m_RootOrder
      value: 0
      objectReference: {fileID: 0}
    - target: {fileID: 8961325766154055663, guid: 253990fc93f73734baf3c228d1bbd808,
        type: 3}
      propertyPath: m_LocalEulerAnglesHint.x
      value: 0
      objectReference: {fileID: 0}
    - target: {fileID: 8961325766154055663, guid: 253990fc93f73734baf3c228d1bbd808,
        type: 3}
      propertyPath: m_LocalEulerAnglesHint.y
      value: 91.387
      objectReference: {fileID: 0}
    - target: {fileID: 8961325766154055663, guid: 253990fc93f73734baf3c228d1bbd808,
        type: 3}
      propertyPath: m_LocalEulerAnglesHint.z
      value: 0
      objectReference: {fileID: 0}
    - target: {fileID: 8961325766154055663, guid: 253990fc93f73734baf3c228d1bbd808,
        type: 3}
      propertyPath: m_LocalScale.x
      value: 1.8191502
      objectReference: {fileID: 0}
    - target: {fileID: 8961325766154055663, guid: 253990fc93f73734baf3c228d1bbd808,
        type: 3}
      propertyPath: m_LocalScale.z
      value: 1.8191499
      objectReference: {fileID: 0}
    m_RemovedComponents: []
  m_SourcePrefab: {fileID: 100100000, guid: 253990fc93f73734baf3c228d1bbd808, type: 3}
